[
    {
        "jmhVersion" : "1.36",
        "benchmark" : "com.kenfogel.performance.loaders.MapTests.do01LoadHashMap",
        "mode" : "avgt",
        "threads" : 1,
        "forks" : 1,
        "jvm" : "C:\\Program Files\\Eclipse Adoptium\\jdk-17.0.6.10-hotspot\\bin\\java.exe",
        "jvmArgs" : [
            "-server",
            "-Djmh.stack.period=1"
        ],
        "jdkVersion" : "17.0.6",
        "vmName" : "OpenJDK 64-Bit Server VM",
        "vmVersion" : "17.0.6+10",
        "warmupIterations" : 0,
        "warmupTime" : "10 s",
        "warmupBatchSize" : 1,
        "measurementIterations" : 1,
        "measurementTime" : "10 s",
        "measurementBatchSize" : 1,
        "primaryMetric" : {
            "score" : 21684.303822689246,
            "scoreError" : "NaN",
            "scoreConfidence" : [
                "NaN",
                "NaN"
            ],
            "scorePercentiles" : {
                "0.0" : 21684.303822689246,
                "50.0" : 21684.303822689246,
                "90.0" : 21684.303822689246,
                "95.0" : 21684.303822689246,
                "99.0" : 21684.303822689246,
                "99.9" : 21684.303822689246,
                "99.99" : 21684.303822689246,
                "99.999" : 21684.303822689246,
                "99.9999" : 21684.303822689246,
                "100.0" : 21684.303822689246
            },
            "scoreUnit" : "ns/op",
            "rawData" : [
                [
                    21684.303822689246
                ]
            ]
        },
        "secondaryMetrics" : {
        }
    },
    {
        "jmhVersion" : "1.36",
        "benchmark" : "com.kenfogel.performance.loaders.MapTests.do02AddToHashMap",
        "mode" : "avgt",
        "threads" : 1,
        "forks" : 1,
        "jvm" : "C:\\Program Files\\Eclipse Adoptium\\jdk-17.0.6.10-hotspot\\bin\\java.exe",
        "jvmArgs" : [
            "-server",
            "-Djmh.stack.period=1"
        ],
        "jdkVersion" : "17.0.6",
        "vmName" : "OpenJDK 64-Bit Server VM",
        "vmVersion" : "17.0.6+10",
        "warmupIterations" : 0,
        "warmupTime" : "10 s",
        "warmupBatchSize" : 1,
        "measurementIterations" : 1,
        "measurementTime" : "10 s",
        "measurementBatchSize" : 1,
        "primaryMetric" : {
            "score" : 85.50396122103244,
            "scoreError" : "NaN",
            "scoreConfidence" : [
                "NaN",
                "NaN"
            ],
            "scorePercentiles" : {
                "0.0" : 85.50396122103244,
                "50.0" : 85.50396122103244,
                "90.0" : 85.50396122103244,
                "95.0" : 85.50396122103244,
                "99.0" : 85.50396122103244,
                "99.9" : 85.50396122103244,
                "99.99" : 85.50396122103244,
                "99.999" : 85.50396122103244,
                "99.9999" : 85.50396122103244,
                "100.0" : 85.50396122103244
            },
            "scoreUnit" : "ns/op",
            "rawData" : [
                [
                    85.50396122103244
                ]
            ]
        },
        "secondaryMetrics" : {
        }
    },
    {
        "jmhVersion" : "1.36",
        "benchmark" : "com.kenfogel.performance.loaders.MapTests.do03HashMapSearch",
        "mode" : "avgt",
        "threads" : 1,
        "forks" : 1,
        "jvm" : "C:\\Program Files\\Eclipse Adoptium\\jdk-17.0.6.10-hotspot\\bin\\java.exe",
        "jvmArgs" : [
            "-server",
            "-Djmh.stack.period=1"
        ],
        "jdkVersion" : "17.0.6",
        "vmName" : "OpenJDK 64-Bit Server VM",
        "vmVersion" : "17.0.6+10",
        "warmupIterations" : 0,
        "warmupTime" : "10 s",
        "warmupBatchSize" : 1,
        "measurementIterations" : 1,
        "measurementTime" : "10 s",
        "measurementBatchSize" : 1,
        "primaryMetric" : {
            "score" : 413.5263755872256,
            "scoreError" : "NaN",
            "scoreConfidence" : [
                "NaN",
                "NaN"
            ],
            "scorePercentiles" : {
                "0.0" : 413.5263755872256,
                "50.0" : 413.5263755872256,
                "90.0" : 413.5263755872256,
                "95.0" : 413.5263755872256,
                "99.0" : 413.5263755872256,
                "99.9" : 413.5263755872256,
                "99.99" : 413.5263755872256,
                "99.999" : 413.5263755872256,
                "99.9999" : 413.5263755872256,
                "100.0" : 413.5263755872256
            },
            "scoreUnit" : "ns/op",
            "rawData" : [
                [
                    413.5263755872256
                ]
            ]
        },
        "secondaryMetrics" : {
        }
    },
    {
        "jmhVersion" : "1.36",
        "benchmark" : "com.kenfogel.performance.loaders.MapTests.do04LoadTreeMap",
        "mode" : "avgt",
        "threads" : 1,
        "forks" : 1,
        "jvm" : "C:\\Program Files\\Eclipse Adoptium\\jdk-17.0.6.10-hotspot\\bin\\java.exe",
        "jvmArgs" : [
            "-server",
            "-Djmh.stack.period=1"
        ],
        "jdkVersion" : "17.0.6",
        "vmName" : "OpenJDK 64-Bit Server VM",
        "vmVersion" : "17.0.6+10",
        "warmupIterations" : 0,
        "warmupTime" : "10 s",
        "warmupBatchSize" : 1,
        "measurementIterations" : 1,
        "measurementTime" : "10 s",
        "measurementBatchSize" : 1,
        "primaryMetric" : {
            "score" : 183308.35379484735,
            "scoreError" : "NaN",
            "scoreConfidence" : [
                "NaN",
                "NaN"
            ],
            "scorePercentiles" : {
                "0.0" : 183308.35379484735,
                "50.0" : 183308.35379484735,
                "90.0" : 183308.35379484735,
                "95.0" : 183308.35379484735,
                "99.0" : 183308.35379484735,
                "99.9" : 183308.35379484735,
                "99.99" : 183308.35379484735,
                "99.999" : 183308.35379484735,
                "99.9999" : 183308.35379484735,
                "100.0" : 183308.35379484735
            },
            "scoreUnit" : "ns/op",
            "rawData" : [
                [
                    183308.35379484735
                ]
            ]
        },
        "secondaryMetrics" : {
        }
    },
    {
        "jmhVersion" : "1.36",
        "benchmark" : "com.kenfogel.performance.loaders.MapTests.do05AddToTreeMap",
        "mode" : "avgt",
        "threads" : 1,
        "forks" : 1,
        "jvm" : "C:\\Program Files\\Eclipse Adoptium\\jdk-17.0.6.10-hotspot\\bin\\java.exe",
        "jvmArgs" : [
            "-server",
            "-Djmh.stack.period=1"
        ],
        "jdkVersion" : "17.0.6",
        "vmName" : "OpenJDK 64-Bit Server VM",
        "vmVersion" : "17.0.6+10",
        "warmupIterations" : 0,
        "warmupTime" : "10 s",
        "warmupBatchSize" : 1,
        "measurementIterations" : 1,
        "measurementTime" : "10 s",
        "measurementBatchSize" : 1,
        "primaryMetric" : {
            "score" : 133.18168868638324,
            "scoreError" : "NaN",
            "scoreConfidence" : [
                "NaN",
                "NaN"
            ],
            "scorePercentiles" : {
                "0.0" : 133.18168868638324,
                "50.0" : 133.18168868638324,
                "90.0" : 133.18168868638324,
                "95.0" : 133.18168868638324,
                "99.0" : 133.18168868638324,
                "99.9" : 133.18168868638324,
                "99.99" : 133.18168868638324,
                "99.999" : 133.18168868638324,
                "99.9999" : 133.18168868638324,
                "100.0" : 133.18168868638324
            },
            "scoreUnit" : "ns/op",
            "rawData" : [
                [
                    133.18168868638324
                ]
            ]
        },
        "secondaryMetrics" : {
        }
    },
    {
        "jmhVersion" : "1.36",
        "benchmark" : "com.kenfogel.performance.loaders.MapTests.do06TreeMapSearch",
        "mode" : "avgt",
        "threads" : 1,
        "forks" : 1,
        "jvm" : "C:\\Program Files\\Eclipse Adoptium\\jdk-17.0.6.10-hotspot\\bin\\java.exe",
        "jvmArgs" : [
            "-server",
            "-Djmh.stack.period=1"
        ],
        "jdkVersion" : "17.0.6",
        "vmName" : "OpenJDK 64-Bit Server VM",
        "vmVersion" : "17.0.6+10",
        "warmupIterations" : 0,
        "warmupTime" : "10 s",
        "warmupBatchSize" : 1,
        "measurementIterations" : 1,
        "measurementTime" : "10 s",
        "measurementBatchSize" : 1,
        "primaryMetric" : {
            "score" : 1019.7088001437602,
            "scoreError" : "NaN",
            "scoreConfidence" : [
                "NaN",
                "NaN"
            ],
            "scorePercentiles" : {
                "0.0" : 1019.7088001437602,
                "50.0" : 1019.7088001437602,
                "90.0" : 1019.7088001437602,
                "95.0" : 1019.7088001437602,
                "99.0" : 1019.7088001437602,
                "99.9" : 1019.7088001437602,
                "99.99" : 1019.7088001437602,
                "99.999" : 1019.7088001437602,
                "99.9999" : 1019.7088001437602,
                "100.0" : 1019.7088001437602
            },
            "scoreUnit" : "ns/op",
            "rawData" : [
                [
                    1019.7088001437602
                ]
            ]
        },
        "secondaryMetrics" : {
        }
    }
]


